[gd_scene load_steps=6 format=2]

[ext_resource path="res://bullet.gd" type="Script" id=1]
[ext_resource path="res://assets/bullet2.png" type="Texture" id=2]
[ext_resource path="res://sfx/m4a1.wav" type="AudioStream" id=4]
[ext_resource path="res://assets/play-button.png" type="Texture" id=5]

[sub_resource type="CapsuleShape2D" id=1]
radius = 2.5
height = 24.0

[node name="bullet" type="Area2D"]
script = ExtResource( 1 )

[node name="Collision" type="CollisionShape2D" parent="."]
rotation = 1.5708
scale = Vector2( 1.5, 1 )
shape = SubResource( 1 )

[node name="rocket_sprite" type="Sprite" parent="."]
rotation = 1.5708
scale = Vector2( 1.5, 1 )
texture = ExtResource( 2 )

[node name="fire" type="AudioStreamPlayer2D" parent="."]
stream = ExtResource( 4 )
volume_db = -15.0

[node name="UI" type="Sprite" parent="."]
visible = false
scale = Vector2( 0.1, 0.1 )
texture = ExtResource( 5 )

[connection signal="area_entered" from="." to="." method="_on_bullet_entered"]
